[
    {
        "loc": {
            "type": "Point",
            "coordinates": [
                25.1973,
                55.2793
            ]
        },
        "dispatchCenter": "Mumbai",
        "pincode": 400067,
        "address": "Mumbai 17",
        "contactNumber": 999000999000
    },
    {
        "loc": {
            "type": "Point",
            "coordinates": [
                25.2091,
                55.2091
            ]
        },
        "dispatchCenter": "Delhi",
        "pincode": 300843,
        "address": "Delhi-panjab",
        "contactNumber": 999000999400
    }
]